#=========================================================================================================
#=========================================================================================================
#	RESULTS OF SIMULATIONS. 
#	Notes
#	BOT_avg_expV = [left, right]
#	MID_avg_expV = [left, right]
#	TOP_avg_expV = [left, right] 
#	error_bar = [bottom_avg_left, bottom_avg_right, mid_avg_left, mid_avg_right, top_avg_left, top_avg_right] // possibly with err_bar of 4,10,17 at the end
#=========================================================================================================
#=========================================================================================================



