#=========================================================================================================
#=========================================================================================================
#	RESULTS OF SIMULATIONS. 
#	Notes
#	BOT_avg_expV = [left, right]
#	MID_avg_expV = [left, right]
#	TOP_avg_expV = [left, right] 
#	error_bar = [bottom_avg_left, bottom_avg_right, mid_avg_left, mid_avg_right, top_avg_left, top_avg_right] // possibly with err_bar of 4,10,17 at the end
#=========================================================================================================
#=========================================================================================================





DELETE: 
BOTTOM expV: 	[1.95, 1.95]
MID expV: 	[6.2, 6.2]
TOP expV: 	[8.61, 8.61] 
± [0.0, 0.0, 0.0, 0.0, 0.0, 0.0]
_______________________________________


DELETE: 
BOTTOM expV: 	[3.26, 3.26]
MID expV: 	[9.79, 9.79]
TOP expV: 	[16.32, 16.32] 
± [0.0, 0.0, 0.0, 0.0, 0.0, 0.0]
_______________________________________


DELETE: 
BOTTOM expV: 	[2.96, 2.96]
MID expV: 	[8.46, 8.46]
TOP expV: 	[13.82, 13.82] 
± [0.0, 0.0, 0.0, 0.0, 0.0, 0.0]
_______________________________________


DELETE: 
BOTTOM expV: 	[3.32, 3.32]
MID expV: 	[9.96, 9.96]
TOP expV: 	[16.59, 16.59] 
± [0.0, 0.0, 0.0, 0.0, 0.0, 0.0]
_______________________________________


DELETE: 
BOTTOM expV: 	[3.32, 3.32]
MID expV: 	[9.97, 9.97]
TOP expV: 	[16.62, 16.62] 
± [0.0, 0.0, 0.0, 0.0, 0.0, 0.0]
_______________________________________
